miniProject_income
…
income_by_age <- welfare %>% 
  filter(!is.na(income)) %>% 
  group_by(age) %>% 
  summarise(meanIncome = mean(income))
income_by_age

## # A tibble: 69 x 2
##      age meanIncome
##    <dbl>      <dbl>
##  1    20       121.
##  2    21       106.
##  3    22       130.
##  4    23       142.
##  5    24       134.
##  6    25       145.
##  7    26       158.
##  8    27       188.
##  9    28       205.
## 10    29       189.
## # ... with 59 more rows
…
length(unique_a) # 107

## [1] 107

#     

income_by_alljob <- welfare %>% 
  filter(!is.na(income)) %>% 
  group_by(code_job) %>% 
  summarise(meanIncome = mean(income))

income_by_alljob

## # A tibble: 142 x 2
##    code_job meanIncome
##       <dbl>      <dbl>
##  1      111       750 
##  2      120       564.
##  3      131       550.
##  4      132       726.
##  5      133       375.
##  6      134       557.
##  7      135       323.
##  8      139       317.
##  9      141       536.
## 10      149       465.
## # ... with 132 more rows
…
